[
{
	"class": "level",
	"name": "test2",
	"map": "levels/tests/test2.tmx",
	"bots": "levels/tests/test2.json",
	"pos": [200, 140]
},
{
	"class": "level",
	"name": "test3",
	"map": "levels/tests/test3.tmx",
	"bots": "levels/tests/test3.json",
	"pos": [300, 140]
},
{
	"class": "level",
	"name": "test4",
	"map": "levels/tests/test4.tmx",
	"bots": "levels/tests/test4.json",
	"pos": [400, 140]
},
{
	"class": "level",
	"name": "test5",
	"map": "levels/tests/test5.tmx",
	"bots": "levels/tests/test5.json",
	"pos": [500, 140]
},
{
	"class": "level",
	"name": "test6",
	"map": "levels/tests/test6.tmx",
	"bots": "levels/tests/test6.json",
	"pos": [500, 240]
}]

