[
{
	"class": "level",
	"name": "continue1",
	"map": "levels/04/continue1.tmx",
	"bots": "levels/04/continue1.json",
	"pos": [320, 400],
	"minSteps": 27,
	"minIns": 4,
	"tutorial": ["UpWall","RightWall","UpWall","LeftWall","play","win"]
},
{
	"class": "level",
	"name": "continue2",
	"map": "levels/04/continue2.tmx",
	"bots": "levels/04/continue2.json",
	"pos": [195, 340],
	"minSteps": 18,
	"minIns": 5
},
{
	"class": "level",
	"name": "continue3",
	"map": "levels/04/continue3.tmx",
	"bots": "levels/04/continue3.json",
	"pos": [164, 204],
	"minSteps": 37,
	"minIns": 7
},
{
	"class": "level",
	"name": "continue4",
	"map": "levels/04/continue4.tmx",
	"bots": "levels/04/continue4.json",
	"pos": [251, 96],
	"minSteps": 23,
	"minIns": 7
},
{
	"class": "level",
	"name": "continue5",
	"map": "levels/04/continue5.tmx",
	"bots": "levels/04/continue5.json",
	"pos": [389, 96],
	"minSteps": 10,
	"minIns": 3
},
{
	"class": "level",
	"name": "continue6",
	"map": "levels/04/continue6.tmx",
	"bots": "levels/04/continue6.json",
	"pos": [476, 204],
	"minSteps": 18,
	"minIns": 7
},
{
	"class": "level",
	"name": "continue7",
	"map": "levels/04/continue7.tmx",
	"bots": "levels/04/continue7.json",
	"pos": [445, 340],
	"minSteps": 41,
	"minIns": 8
}
]

