[
{
	"class": "bot",
	"instructionSet": ["RotateWorld#90","RotateWorld#-90","Wait"],
	"program": [],
	"programSize": 6,
	"x": 5, "y": 1,
	"flagColor": {"g": 1,"a": 1},
	"texture": "round_bot"
},
{
	"class": "bot",
	"program": ["Right"],
	"programSize": 1,
	"x": 1, "y": 3,
	"flagColor": {"r":1,"g":1,"a":1},
	"texture": "round_bot",
	"id": 1,
	"editable": false
},
{
	"class": "bot",
	"program": ["Right"],
	"programSize": 1,
	"x": 3, "y": 3,
	"flagColor": {"r":1,"g":1,"a":1},
	"texture": "round_bot",
	"id": 2,
	"editable": false
}
]

