info face="Nimbus Mono L Regular" size=48 bold=1 italic=0 charset="" unicode=0 stretchH=100 smooth=1 aa=1 padding=0,0,0,0 spacing=0,0
common lineHeight=59 base=40 scaleW=512 scaleH=512 pages=1 packed=0
page id=0 file="title.png"
chars count=94
char id=32   x=0     y=0     width=0     height=0     xoffset=0     yoffset=40    xadvance=31     page=0  chnl=0 
char id=106   x=0     y=0     width=18     height=42     xoffset=7     yoffset=8    xadvance=31     page=0  chnl=0 
char id=36   x=18     y=0     width=21     height=40     xoffset=5     yoffset=6    xadvance=31     page=0  chnl=0 
char id=92   x=39     y=0     width=21     height=40     xoffset=5     yoffset=5    xadvance=31     page=0  chnl=0 
char id=47   x=60     y=0     width=21     height=40     xoffset=5     yoffset=5    xadvance=31     page=0  chnl=0 
char id=125   x=81     y=0     width=13     height=39     xoffset=9     yoffset=9    xadvance=31     page=0  chnl=0 
char id=123   x=94     y=0     width=13     height=39     xoffset=9     yoffset=9    xadvance=31     page=0  chnl=0 
char id=41   x=107     y=0     width=11     height=39     xoffset=7     yoffset=9    xadvance=31     page=0  chnl=0 
char id=40   x=118     y=0     width=11     height=39     xoffset=14     yoffset=9    xadvance=31     page=0  chnl=0 
char id=35   x=129     y=0     width=23     height=38     xoffset=4     yoffset=7    xadvance=31     page=0  chnl=0 
char id=124   x=152     y=0     width=5     height=38     xoffset=13     yoffset=9    xadvance=31     page=0  chnl=0 
char id=93   x=157     y=0     width=11     height=38     xoffset=7     yoffset=9    xadvance=31     page=0  chnl=0 
char id=91   x=168     y=0     width=11     height=38     xoffset=13     yoffset=9    xadvance=31     page=0  chnl=0 
char id=64   x=179     y=0     width=21     height=37     xoffset=5     yoffset=7    xadvance=31     page=0  chnl=0 
char id=81   x=200     y=0     width=27     height=37     xoffset=2     yoffset=10    xadvance=31     page=0  chnl=0 
char id=37   x=227     y=0     width=25     height=34     xoffset=3     yoffset=8    xadvance=31     page=0  chnl=0 
char id=33   x=252     y=0     width=9     height=34     xoffset=11     yoffset=8    xadvance=31     page=0  chnl=0 
char id=48   x=261     y=0     width=21     height=34     xoffset=5     yoffset=8    xadvance=31     page=0  chnl=0 
char id=57   x=282     y=0     width=21     height=34     xoffset=6     yoffset=8    xadvance=31     page=0  chnl=0 
char id=56   x=303     y=0     width=20     height=34     xoffset=5     yoffset=8    xadvance=31     page=0  chnl=0 
char id=54   x=323     y=0     width=21     height=34     xoffset=6     yoffset=8    xadvance=31     page=0  chnl=0 
char id=51   x=344     y=0     width=22     height=34     xoffset=4     yoffset=8    xadvance=31     page=0  chnl=0 
char id=53   x=366     y=0     width=23     height=33     xoffset=4     yoffset=9    xadvance=31     page=0  chnl=0 
char id=50   x=389     y=0     width=21     height=33     xoffset=4     yoffset=8    xadvance=31     page=0  chnl=0 
char id=49   x=410     y=0     width=21     height=33     xoffset=5     yoffset=8    xadvance=31     page=0  chnl=0 
char id=113   x=431     y=0     width=28     height=33     xoffset=3     yoffset=17    xadvance=31     page=0  chnl=0 
char id=112   x=459     y=0     width=27     height=33     xoffset=1     yoffset=17    xadvance=31     page=0  chnl=0 
char id=105   x=486     y=0     width=23     height=33     xoffset=4     yoffset=8    xadvance=31     page=0  chnl=0 
char id=103   x=0     y=42     width=27     height=33     xoffset=3     yoffset=17    xadvance=31     page=0  chnl=0 
char id=100   x=27     y=42     width=28     height=33     xoffset=3     yoffset=9    xadvance=31     page=0  chnl=0 
char id=98   x=55     y=42     width=27     height=33     xoffset=1     yoffset=9    xadvance=31     page=0  chnl=0 
char id=63   x=82     y=42     width=20     height=32     xoffset=6     yoffset=10    xadvance=31     page=0  chnl=0 
char id=55   x=102     y=42     width=21     height=32     xoffset=5     yoffset=9    xadvance=31     page=0  chnl=0 
char id=52   x=123     y=42     width=21     height=32     xoffset=5     yoffset=9    xadvance=31     page=0  chnl=0 
char id=121   x=144     y=42     width=27     height=32     xoffset=2     yoffset=18    xadvance=31     page=0  chnl=0 
char id=108   x=171     y=42     width=23     height=32     xoffset=4     yoffset=9    xadvance=31     page=0  chnl=0 
char id=107   x=194     y=42     width=26     height=32     xoffset=3     yoffset=9    xadvance=31     page=0  chnl=0 
char id=104   x=220     y=42     width=28     height=32     xoffset=2     yoffset=9    xadvance=31     page=0  chnl=0 
char id=102   x=248     y=42     width=24     height=32     xoffset=5     yoffset=9    xadvance=31     page=0  chnl=0 
char id=83   x=272     y=42     width=23     height=32     xoffset=4     yoffset=10    xadvance=31     page=0  chnl=0 
char id=79   x=295     y=42     width=27     height=32     xoffset=2     yoffset=10    xadvance=31     page=0  chnl=0 
char id=71   x=322     y=42     width=26     height=32     xoffset=3     yoffset=10    xadvance=31     page=0  chnl=0 
char id=67   x=348     y=42     width=25     height=32     xoffset=3     yoffset=10    xadvance=31     page=0  chnl=0 
char id=116   x=373     y=42     width=25     height=31     xoffset=2     yoffset=11    xadvance=31     page=0  chnl=0 
char id=85   x=398     y=42     width=28     height=31     xoffset=2     yoffset=11    xadvance=31     page=0  chnl=0 
char id=74   x=426     y=42     width=27     height=31     xoffset=4     yoffset=11    xadvance=31     page=0  chnl=0 
char id=59   x=453     y=42     width=14     height=30     xoffset=7     yoffset=18    xadvance=31     page=0  chnl=0 
char id=90   x=467     y=42     width=21     height=30     xoffset=5     yoffset=11    xadvance=31     page=0  chnl=0 
char id=89   x=0     y=75     width=27     height=30     xoffset=2     yoffset=11    xadvance=31     page=0  chnl=0 
char id=88   x=27     y=75     width=28     height=30     xoffset=2     yoffset=11    xadvance=31     page=0  chnl=0 
char id=87   x=55     y=75     width=30     height=30     xoffset=1     yoffset=11    xadvance=31     page=0  chnl=0 
char id=86   x=85     y=75     width=31     height=30     xoffset=0     yoffset=11    xadvance=31     page=0  chnl=0 
char id=84   x=116     y=75     width=25     height=30     xoffset=3     yoffset=11    xadvance=31     page=0  chnl=0 
char id=82   x=141     y=75     width=29     height=30     xoffset=2     yoffset=11    xadvance=31     page=0  chnl=0 
char id=80   x=170     y=75     width=25     height=30     xoffset=2     yoffset=11    xadvance=31     page=0  chnl=0 
char id=78   x=195     y=75     width=29     height=30     xoffset=1     yoffset=11    xadvance=31     page=0  chnl=0 
char id=77   x=224     y=75     width=31     height=30     xoffset=0     yoffset=11    xadvance=31     page=0  chnl=0 
char id=76   x=255     y=75     width=25     height=30     xoffset=3     yoffset=11    xadvance=31     page=0  chnl=0 
char id=75   x=280     y=75     width=29     height=30     xoffset=2     yoffset=11    xadvance=31     page=0  chnl=0 
char id=73   x=309     y=75     width=21     height=30     xoffset=5     yoffset=11    xadvance=31     page=0  chnl=0 
char id=72   x=330     y=75     width=28     height=30     xoffset=2     yoffset=11    xadvance=31     page=0  chnl=0 
char id=70   x=358     y=75     width=25     height=30     xoffset=2     yoffset=11    xadvance=31     page=0  chnl=0 
char id=69   x=383     y=75     width=26     height=30     xoffset=2     yoffset=11    xadvance=31     page=0  chnl=0 
char id=68   x=409     y=75     width=25     height=30     xoffset=2     yoffset=11    xadvance=31     page=0  chnl=0 
char id=66   x=434     y=75     width=26     height=30     xoffset=2     yoffset=11    xadvance=31     page=0  chnl=0 
char id=65   x=460     y=75     width=31     height=30     xoffset=0     yoffset=11    xadvance=31     page=0  chnl=0 
char id=38   x=0     y=105     width=21     height=29     xoffset=5     yoffset=13    xadvance=31     page=0  chnl=0 
char id=43   x=21     y=105     width=25     height=28     xoffset=3     yoffset=12    xadvance=31     page=0  chnl=0 
char id=62   x=46     y=105     width=26     height=26     xoffset=3     yoffset=13    xadvance=31     page=0  chnl=0 
char id=60   x=72     y=105     width=26     height=26     xoffset=2     yoffset=13    xadvance=31     page=0  chnl=0 
char id=115   x=98     y=105     width=21     height=25     xoffset=5     yoffset=17    xadvance=31     page=0  chnl=0 
char id=111   x=119     y=105     width=25     height=25     xoffset=3     yoffset=17    xadvance=31     page=0  chnl=0 
char id=101   x=144     y=105     width=25     height=25     xoffset=3     yoffset=17    xadvance=31     page=0  chnl=0 
char id=99   x=169     y=105     width=25     height=25     xoffset=4     yoffset=17    xadvance=31     page=0  chnl=0 
char id=97   x=194     y=105     width=26     height=25     xoffset=3     yoffset=17    xadvance=31     page=0  chnl=0 
char id=58   x=220     y=105     width=10     height=24     xoffset=11     yoffset=18    xadvance=31     page=0  chnl=0 
char id=117   x=230     y=105     width=27     height=24     xoffset=2     yoffset=18    xadvance=31     page=0  chnl=0 
char id=114   x=257     y=105     width=25     height=24     xoffset=4     yoffset=17    xadvance=31     page=0  chnl=0 
char id=110   x=282     y=105     width=27     height=24     xoffset=2     yoffset=17    xadvance=31     page=0  chnl=0 
char id=109   x=309     y=105     width=31     height=24     xoffset=0     yoffset=17    xadvance=31     page=0  chnl=0 
char id=122   x=340     y=105     width=20     height=23     xoffset=6     yoffset=18    xadvance=31     page=0  chnl=0 
char id=120   x=360     y=105     width=27     height=23     xoffset=2     yoffset=18    xadvance=31     page=0  chnl=0 
char id=119   x=387     y=105     width=29     height=23     xoffset=1     yoffset=18    xadvance=31     page=0  chnl=0 
char id=118   x=416     y=105     width=29     height=23     xoffset=1     yoffset=18    xadvance=31     page=0  chnl=0 
char id=42   x=445     y=105     width=21     height=21     xoffset=5     yoffset=9    xadvance=31     page=0  chnl=0 
char id=94   x=466     y=105     width=21     height=18     xoffset=5     yoffset=7    xadvance=31     page=0  chnl=0 
char id=44   x=487     y=105     width=14     height=17     xoffset=6     yoffset=31    xadvance=31     page=0  chnl=0 
char id=39   x=0     y=134     width=11     height=17     xoffset=10     yoffset=9    xadvance=31     page=0  chnl=0 
char id=34   x=11     y=134     width=19     height=17     xoffset=6     yoffset=9    xadvance=31     page=0  chnl=0 
char id=61   x=30     y=134     width=26     height=13     xoffset=2     yoffset=19    xadvance=31     page=0  chnl=0 
char id=96   x=56     y=134     width=12     height=11     xoffset=7     yoffset=7    xadvance=31     page=0  chnl=0 
char id=126   x=68     y=134     width=23     height=10     xoffset=4     yoffset=21    xadvance=31     page=0  chnl=0 
char id=46   x=91     y=134     width=10     height=9     xoffset=11     yoffset=33    xadvance=31     page=0  chnl=0 
char id=95   x=101     y=134     width=32     height=6     xoffset=-1     yoffset=41    xadvance=31     page=0  chnl=0 
char id=45   x=133     y=134     width=24     height=6     xoffset=3     yoffset=23    xadvance=31     page=0  chnl=0 
